<?xml version="1.0" encoding="UTF-8"?>
<testng-results ignored="0" total="9" passed="9" failed="0" skipped="0">
  <reporter-output>
    <line>
      <![CDATA[Sucess 200 validation]]>
    </line>
    <line>
      <![CDATA[{"page":1,"per_page":6,"total":12,"total_pages":2,"data":[{"id":1,"name":"cerulean","year":2000,"color":"#98B2D1","pantone_value":"15-4020"},{"id":2,"name":"fuchsia rose","year":2001,"color":"#C74375","pantone_value":"17-2031"},{"id":3,"name":"true red","year":2002,"color":"#BF1932","pantone_value":"19-1664"},{"id":4,"name":"aqua sky","year":2003,"color":"#7BC4C4","pantone_value":"14-4811"},{"id":5,"name":"tigerlily","year":2004,"color":"#E2583E","pantone_value":"17-1456"},{"id":6,"name":"blue turquoise","year":2005,"color":"#53B0AE","pantone_value":"15-5217"}],"support":{"url":"https://reqres.in/#support-heading","text":"To keep ReqRes free, contributions towards server costs are appreciated!"}}]]>
    </line>
    <line>
      <![CDATA[Sucess 200 validation]]>
    </line>
    <line>
      <![CDATA[{"data":{"id":2,"name":"fuchsia rose","year":2001,"color":"#C74375","pantone_value":"17-2031"},"support":{"url":"https://reqres.in/#support-heading","text":"To keep ReqRes free, contributions towards server costs are appreciated!"}}]]>
    </line>
    <line>
      <![CDATA[Sucess 200 validation]]>
    </line>
    <line>
      <![CDATA[{"data":{"id":2,"email":"janet.weaver@reqres.in","first_name":"Janet","last_name":"Weaver","avatar":"https://reqres.in/img/faces/2-image.jpg"},"support":{"url":"https://reqres.in/#support-heading","text":"To keep ReqRes free, contributions towards server costs are appreciated!"}}]]>
    </line>
    <line>
      <![CDATA[Sucess 404 validation]]>
    </line>
    <line>
      <![CDATA[{}]]>
    </line>
    <line>
      <![CDATA[Current File : {"name":"morpheus","job":"leader"}]]>
    </line>
    <line>
      <![CDATA[Current File : {"password":"cityslicka","email":"eve.holt@reqres.in"}]]>
    </line>
    <line>
      <![CDATA[Current File : {"password":"pistol","email":"eve.holt@reqres.in"}]]>
    </line>
    <line>
      <![CDATA[io.restassured.internal.RestAssuredResponseImpl@1084ac45]]>
    </line>
    <line>
      <![CDATA[Current File : {"email":"sydney@fife"}]]>
    </line>
    <line>
      <![CDATA[Current File : {"name":"morpheus","job":"zion resident"}]]>
    </line>
  </reporter-output>
  <suite started-at="2023-05-26T08:29:54 CST" name="Default suite" finished-at="2023-05-26T08:30:00 CST" duration-ms="5949">
    <groups>
    </groups>
    <test started-at="2023-05-26T08:29:54 CST" name="Default test" finished-at="2023-05-26T08:30:00 CST" duration-ms="5949">
      <class name="com.unosquare.FInalPrTests">
        <test-method is-config="true" signature="beforeSuite()[pri:0, instance:com.unosquare.FInalPrTests@1700915]" started-at="2023-05-26T08:29:54 CST" name="beforeSuite" finished-at="2023-05-26T08:29:54 CST" duration-ms="8" status="PASS">
          <reporter-output>
          </reporter-output>
        </test-method> <!-- beforeSuite -->
        <test-method signature="GetListUnknowns()[pri:0, instance:com.unosquare.FInalPrTests@1700915]" started-at="2023-05-26T08:29:55 CST" name="GetListUnknowns" finished-at="2023-05-26T08:29:57 CST" duration-ms="2261" status="PASS">
          <reporter-output>
            <line>
              <![CDATA[Sucess 200 validation]]>
            </line>
            <line>
              <![CDATA[{"page":1,"per_page":6,"total":12,"total_pages":2,"data":[{"id":1,"name":"cerulean","year":2000,"color":"#98B2D1","pantone_value":"15-4020"},{"id":2,"name":"fuchsia rose","year":2001,"color":"#C74375","pantone_value":"17-2031"},{"id":3,"name":"true red","year":2002,"color":"#BF1932","pantone_value":"19-1664"},{"id":4,"name":"aqua sky","year":2003,"color":"#7BC4C4","pantone_value":"14-4811"},{"id":5,"name":"tigerlily","year":2004,"color":"#E2583E","pantone_value":"17-1456"},{"id":6,"name":"blue turquoise","year":2005,"color":"#53B0AE","pantone_value":"15-5217"}],"support":{"url":"https://reqres.in/#support-heading","text":"To keep ReqRes free, contributions towards server costs are appreciated!"}}]]>
            </line>
          </reporter-output>
        </test-method> <!-- GetListUnknowns -->
        <test-method signature="GetSingleUnknown()[pri:0, instance:com.unosquare.FInalPrTests@1700915]" started-at="2023-05-26T08:29:57 CST" name="GetSingleUnknown" finished-at="2023-05-26T08:29:57 CST" duration-ms="302" status="PASS">
          <reporter-output>
            <line>
              <![CDATA[Sucess 200 validation]]>
            </line>
            <line>
              <![CDATA[{"data":{"id":2,"name":"fuchsia rose","year":2001,"color":"#C74375","pantone_value":"17-2031"},"support":{"url":"https://reqres.in/#support-heading","text":"To keep ReqRes free, contributions towards server costs are appreciated!"}}]]>
            </line>
          </reporter-output>
        </test-method> <!-- GetSingleUnknown -->
        <test-method signature="GetSingleUser()[pri:0, instance:com.unosquare.FInalPrTests@1700915]" started-at="2023-05-26T08:29:57 CST" name="GetSingleUser" finished-at="2023-05-26T08:29:57 CST" duration-ms="270" status="PASS">
          <reporter-output>
            <line>
              <![CDATA[Sucess 200 validation]]>
            </line>
            <line>
              <![CDATA[{"data":{"id":2,"email":"janet.weaver@reqres.in","first_name":"Janet","last_name":"Weaver","avatar":"https://reqres.in/img/faces/2-image.jpg"},"support":{"url":"https://reqres.in/#support-heading","text":"To keep ReqRes free, contributions towards server costs are appreciated!"}}]]>
            </line>
          </reporter-output>
        </test-method> <!-- GetSingleUser -->
        <test-method signature="GetUnknownNotFound()[pri:0, instance:com.unosquare.FInalPrTests@1700915]" started-at="2023-05-26T08:29:57 CST" name="GetUnknownNotFound" finished-at="2023-05-26T08:29:58 CST" duration-ms="484" status="PASS">
          <reporter-output>
            <line>
              <![CDATA[Sucess 404 validation]]>
            </line>
            <line>
              <![CDATA[{}]]>
            </line>
          </reporter-output>
        </test-method> <!-- GetUnknownNotFound -->
        <test-method signature="PostCreateUser()[pri:0, instance:com.unosquare.FInalPrTests@1700915]" started-at="2023-05-26T08:29:58 CST" name="PostCreateUser" finished-at="2023-05-26T08:29:58 CST" duration-ms="565" status="PASS">
          <reporter-output>
            <line>
              <![CDATA[Current File : {"name":"morpheus","job":"leader"}]]>
            </line>
          </reporter-output>
        </test-method> <!-- PostCreateUser -->
        <test-method signature="PostLogIn()[pri:0, instance:com.unosquare.FInalPrTests@1700915]" started-at="2023-05-26T08:29:58 CST" name="PostLogIn" finished-at="2023-05-26T08:29:59 CST" duration-ms="475" status="PASS">
          <reporter-output>
            <line>
              <![CDATA[Current File : {"password":"cityslicka","email":"eve.holt@reqres.in"}]]>
            </line>
          </reporter-output>
        </test-method> <!-- PostLogIn -->
        <test-method signature="PostRegister()[pri:0, instance:com.unosquare.FInalPrTests@1700915]" started-at="2023-05-26T08:29:59 CST" name="PostRegister" finished-at="2023-05-26T08:29:59 CST" duration-ms="544" status="PASS">
          <reporter-output>
            <line>
              <![CDATA[Current File : {"password":"pistol","email":"eve.holt@reqres.in"}]]>
            </line>
            <line>
              <![CDATA[io.restassured.internal.RestAssuredResponseImpl@1084ac45]]>
            </line>
          </reporter-output>
        </test-method> <!-- PostRegister -->
        <test-method signature="PostRegisterFail()[pri:0, instance:com.unosquare.FInalPrTests@1700915]" started-at="2023-05-26T08:29:59 CST" name="PostRegisterFail" finished-at="2023-05-26T08:30:00 CST" duration-ms="494" status="PASS">
          <reporter-output>
            <line>
              <![CDATA[Current File : {"email":"sydney@fife"}]]>
            </line>
          </reporter-output>
        </test-method> <!-- PostRegisterFail -->
        <test-method signature="PutUpdate()[pri:0, instance:com.unosquare.FInalPrTests@1700915]" started-at="2023-05-26T08:30:00 CST" name="PutUpdate" finished-at="2023-05-26T08:30:00 CST" duration-ms="509" status="PASS">
          <reporter-output>
            <line>
              <![CDATA[Current File : {"name":"morpheus","job":"zion resident"}]]>
            </line>
          </reporter-output>
        </test-method> <!-- PutUpdate -->
      </class> <!-- com.unosquare.FInalPrTests -->
    </test> <!-- Default test -->
  </suite> <!-- Default suite -->
</testng-results>
