<?xml version="1.0" encoding="UTF-8"?>
<!-- Generated by org.testng.reporters.JUnitReportReporter -->
<testsuite hostname="REM-LT-230515B" failures="0" tests="9" name="com.unosquare.FInalPrTests" time="5.904" errors="0" timestamp="2023-05-26T08:30:01 CST" skipped="0">
  <testcase classname="com.unosquare.FInalPrTests" name="GetSingleUnknown" time="0.302"/>
  <system-out>
    <![CDATA[Sucess 200 validation
{"data":{"id":2,"name":"fuchsia rose","year":2001,"color":"#C74375","pantone_value":"17-2031"},"support":{"url":"https://reqres.in/#support-heading","text":"To keep ReqRes free, contributions towards server costs are appreciated!"}}]]>
  </system-out>
  <testcase classname="com.unosquare.FInalPrTests" name="GetSingleUser" time="0.270"/>
  <system-out>
    <![CDATA[Sucess 200 validation
{"data":{"id":2,"email":"janet.weaver@reqres.in","first_name":"Janet","last_name":"Weaver","avatar":"https://reqres.in/img/faces/2-image.jpg"},"support":{"url":"https://reqres.in/#support-heading","text":"To keep ReqRes free, contributions towards server costs are appreciated!"}}]]>
  </system-out>
  <testcase classname="com.unosquare.FInalPrTests" name="PostLogIn" time="0.475"/>
  <system-out>
    <![CDATA[Current File : {"password":"cityslicka","email":"eve.holt@reqres.in"}]]>
  </system-out>
  <testcase classname="com.unosquare.FInalPrTests" name="PostRegister" time="0.544"/>
  <system-out>
    <![CDATA[Current File : {"password":"pistol","email":"eve.holt@reqres.in"}
io.restassured.internal.RestAssuredResponseImpl@1084ac45]]>
  </system-out>
  <testcase classname="com.unosquare.FInalPrTests" name="GetUnknownNotFound" time="0.484"/>
  <system-out>
    <![CDATA[Sucess 404 validation
{}]]>
  </system-out>
  <testcase classname="com.unosquare.FInalPrTests" name="PostCreateUser" time="0.565"/>
  <system-out>
    <![CDATA[Current File : {"name":"morpheus","job":"leader"}]]>
  </system-out>
  <testcase classname="com.unosquare.FInalPrTests" name="PutUpdate" time="0.509"/>
  <system-out>
    <![CDATA[Current File : {"name":"morpheus","job":"zion resident"}]]>
  </system-out>
  <testcase classname="com.unosquare.FInalPrTests" name="GetListUnknowns" time="2.261"/>
  <system-out>
    <![CDATA[Sucess 200 validation
{"page":1,"per_page":6,"total":12,"total_pages":2,"data":[{"id":1,"name":"cerulean","year":2000,"color":"#98B2D1","pantone_value":"15-4020"},{"id":2,"name":"fuchsia rose","year":2001,"color":"#C74375","pantone_value":"17-2031"},{"id":3,"name":"true red","year":2002,"color":"#BF1932","pantone_value":"19-1664"},{"id":4,"name":"aqua sky","year":2003,"color":"#7BC4C4","pantone_value":"14-4811"},{"id":5,"name":"tigerlily","year":2004,"color":"#E2583E","pantone_value":"17-1456"},{"id":6,"name":"blue turquoise","year":2005,"color":"#53B0AE","pantone_value":"15-5217"}],"support":{"url":"https://reqres.in/#support-heading","text":"To keep ReqRes free, contributions towards server costs are appreciated!"}}]]>
  </system-out>
  <testcase classname="com.unosquare.FInalPrTests" name="PostRegisterFail" time="0.494"/>
  <system-out>
    <![CDATA[Current File : {"email":"sydney@fife"}]]>
  </system-out>
</testsuite> <!-- com.unosquare.FInalPrTests -->
